{"meta":{"code":"200","description":"success"},"response":{"current_page":1,"data":[{"No. Urut":"019","NoPendaftaran":"2009210237","NoCM":"11825968","Nama Pasien":"Tn. BIBIT","JK":"L","Umur":"66 th 2  bl 20 hr","TglMasuk":"2020-09-21","Jenis Pasien":"BPJS","Ruangan":"POLI JANTUNG","KdRuangan":"215","KdSubInstalasi":"032","StatusPasien":"Lama","KdKelas":"01","UmurTahun":"66","UmurBulan":"2","UmurHari":"20","Kelas":"Kelas III","Status Periksa":"Belum","Alamat Lengkap":"DUSUN DERES","IdPenjamin":"2222222222","IdDokter":null,"NamaDokter":null,"KdInstalasi":"02","KodeReservasi":null,"Status":null,"KdKelompokPasien":"02"},{"No. Urut":"020","NoPendaftaran":"2009210238","NoCM":"11825968","Nama Pasien":"Tn. BIBIT","JK":"L","Umur":"66 th 2  bl 20 hr","TglMasuk":"2020-09-21","Jenis Pasien":"BPJS","Ruangan":"POLI JANTUNG","KdRuangan":"215","KdSubInstalasi":"032","StatusPasien":"Lama","KdKelas":"01","UmurTahun":"66","UmurBulan":"2","UmurHari":"20","Kelas":"Kelas III","Status Periksa":"Belum","Alamat Lengkap":"DUSUN DERES","IdPenjamin":"2222222222","IdDokter":null,"NamaDokter":null,"KdInstalasi":"02","KodeReservasi":null,"Status":null,"KdKelompokPasien":"02"},{"No. Urut":"007","NoPendaftaran":"2009220080","NoCM":"12007507","Nama Pasien":"Tn. SEMBODO","JK":"L","Umur":"48 th 2  bl 12 hr","TglMasuk":"2020-09-22","Jenis Pasien":"BPJS","Ruangan":"POLI JANTUNG","KdRuangan":"215","KdSubInstalasi":"032","StatusPasien":"Lama","KdKelas":"01","UmurTahun":"48","UmurBulan":"2","UmurHari":"12","Kelas":"Kelas III","Status Periksa":"Belum","Alamat Lengkap":"DSN KRAJAN","IdPenjamin":"2222222222","IdDokter":null,"NamaDokter":null,"KdInstalasi":"02","KodeReservasi":null,"Status":null,"KdKelompokPasien":"02"},{"No. Urut":"014","NoPendaftaran":"2009220097","NoCM":"11667102","Nama Pasien":"Ny. SITI INDAHYATI","JK":"P","Umur":"37 th 9  bl 20 hr","TglMasuk":"2020-09-22","Jenis Pasien":"BPJS","Ruangan":"POLI JANTUNG","KdRuangan":"215","KdSubInstalasi":"032","StatusPasien":"Lama","KdKelas":"01","UmurTahun":"37","UmurBulan":"9","UmurHari":"20","Kelas":"Kelas III","Status Periksa":"Belum","Alamat Lengkap":"DUSUN BUNGUR","IdPenjamin":"2222222222","IdDokter":null,"NamaDokter":null,"KdInstalasi":"02","KodeReservasi":null,"Status":null,"KdKelompokPasien":"02"},{"No. Urut":"016","NoPendaftaran":"2009220100","NoCM":"11667102","Nama Pasien":"Ny. SITI INDAHYATI","JK":"P","Umur":"37 th 9  bl 20 hr","TglMasuk":"2020-09-22","Jenis Pasien":"BPJS","Ruangan":"POLI JANTUNG","KdRuangan":"215","KdSubInstalasi":"032","StatusPasien":"Lama","KdKelas":"01","UmurTahun":"37","UmurBulan":"9","UmurHari":"20","Kelas":"Kelas III","Status Periksa":"Belum","Alamat Lengkap":"DUSUN BUNGUR","IdPenjamin":"2222222222","IdDokter":null,"NamaDokter":null,"KdInstalasi":"02","KodeReservasi":null,"Status":null,"KdKelompokPasien":"02"},{"No. Urut":"040","NoPendaftaran":"2009220276","NoCM":"11663016","Nama Pasien":"Ny. TITIK SUKRISTIANDARI","JK":"P","Umur":"60 th 7  bl 22 hr","TglMasuk":"2020-09-22","Jenis Pasien":"BPJS","Ruangan":"POLI JANTUNG","KdRuangan":"215","KdSubInstalasi":"032","StatusPasien":"Lama","KdKelas":"01","UmurTahun":"60","UmurBulan":"7","UmurHari":"22","Kelas":"Kelas III","Status Periksa":"Belum","Alamat Lengkap":"JL. P. SUDIRMAN","IdPenjamin":"2222222222","IdDokter":null,"NamaDokter":null,"KdInstalasi":"02","KodeReservasi":null,"Status":null,"KdKelompokPasien":"02"},{"No. Urut":"041","NoPendaftaran":"2009220278","NoCM":"11663016","Nama Pasien":"Ny. TITIK SUKRISTIANDARI","JK":"P","Umur":"60 th 7  bl 22 hr","TglMasuk":"2020-09-22","Jenis Pasien":"BPJS","Ruangan":"POLI JANTUNG","KdRuangan":"215","KdSubInstalasi":"032","StatusPasien":"Lama","KdKelas":"01","UmurTahun":"60","UmurBulan":"7","UmurHari":"22","Kelas":"Kelas III","Status Periksa":"Belum","Alamat Lengkap":"JL. P. SUDIRMAN","IdPenjamin":"2222222222","IdDokter":null,"NamaDokter":null,"KdInstalasi":"02","KodeReservasi":null,"Status":null,"KdKelompokPasien":"02"},{"No. Urut":"052","NoPendaftaran":"2009220375","NoCM":"11753623","Nama Pasien":"Tn. PARNI","JK":"L","Umur":"78 th 2  bl 21 hr","TglMasuk":"2020-09-22","Jenis Pasien":"BPJS","Ruangan":"POLI JANTUNG","KdRuangan":"215","KdSubInstalasi":"032","StatusPasien":"Lama","KdKelas":"01","UmurTahun":"78","UmurBulan":"2","UmurHari":"21","Kelas":"Kelas III","Status Periksa":"Belum","Alamat Lengkap":"DSN KEDUNGJALIN","IdPenjamin":"2222222222","IdDokter":null,"NamaDokter":null,"KdInstalasi":"02","KodeReservasi":null,"Status":null,"KdKelompokPasien":"02"},{"No. Urut":"035","NoPendaftaran":"2009250497","NoCM":"12023678","Nama Pasien":"Ny. MAINAH","JK":"P","Umur":"53 th 16 hr","TglMasuk":"2020-09-25","Jenis Pasien":"BPJS","Ruangan":"POLI JANTUNG","KdRuangan":"215","KdSubInstalasi":"032","StatusPasien":"Lama","KdKelas":"01","UmurTahun":"53","UmurBulan":"0","UmurHari":"16","Kelas":"Kelas III","Status Periksa":"Belum","Alamat Lengkap":"DUSUN GEMPLENG","IdPenjamin":"2222222222","IdDokter":null,"NamaDokter":null,"KdInstalasi":"02","KodeReservasi":null,"Status":null,"KdKelompokPasien":"02"},{"No. Urut":"008","NoPendaftaran":"2009280063","NoCM":"11621288","Nama Pasien":"Tn. SUKARNI","JK":"L","Umur":"68 th 1  bl 4  hr","TglMasuk":"2020-09-28","Jenis Pasien":"BPJS","Ruangan":"POLI JANTUNG","KdRuangan":"215","KdSubInstalasi":"032","StatusPasien":"Lama","KdKelas":"01","UmurTahun":"68","UmurBulan":"1","UmurHari":"4","Kelas":"Kelas III","Status Periksa":"Belum","Alamat Lengkap":"JL. P. SUDIRMAN 5","IdPenjamin":"2222222222","IdDokter":null,"NamaDokter":null,"KdInstalasi":"02","KodeReservasi":null,"Status":null,"KdKelompokPasien":"02"},{"No. Urut":"036","NoPendaftaran":"2009290466","NoCM":"11734253","Nama Pasien":"Ny. ISPONATI","JK":"P","Umur":"66 th 8  bl 25 hr","TglMasuk":"2020-09-29","Jenis Pasien":"BPJS","Ruangan":"POLI JANTUNG","KdRuangan":"215","KdSubInstalasi":"032","StatusPasien":"Lama","KdKelas":"01","UmurTahun":"66","UmurBulan":"8","UmurHari":"25","Kelas":"Kelas III","Status Periksa":"Belum","Alamat Lengkap":"DSN KASREPAN","IdPenjamin":"2222222222","IdDokter":null,"NamaDokter":null,"KdInstalasi":"02","KodeReservasi":null,"Status":null,"KdKelompokPasien":"02"},{"No. Urut":"020","NoPendaftaran":"2009300209","NoCM":"11706421","Nama Pasien":"Tn. KAYANTO","JK":"L","Umur":"77 th 2  bl 29 hr","TglMasuk":"2020-09-30","Jenis Pasien":"BPJS","Ruangan":"POLI JANTUNG","KdRuangan":"215","KdSubInstalasi":"032","StatusPasien":"Lama","KdKelas":"01","UmurTahun":"77","UmurBulan":"2","UmurHari":"29","Kelas":"Kelas III","Status Periksa":"Belum","Alamat Lengkap":"DSN. SUMPUTAN","IdPenjamin":"2222222222","IdDokter":null,"NamaDokter":null,"KdInstalasi":"02","KodeReservasi":null,"Status":null,"KdKelompokPasien":"02"},{"No. Urut":"022","NoPendaftaran":"2009300213","NoCM":"11706421","Nama Pasien":"Tn. KAYANTO","JK":"L","Umur":"77 th 2  bl 29 hr","TglMasuk":"2020-09-30","Jenis Pasien":"BPJS","Ruangan":"POLI JANTUNG","KdRuangan":"215","KdSubInstalasi":"032","StatusPasien":"Lama","KdKelas":"01","UmurTahun":"77","UmurBulan":"2","UmurHari":"29","Kelas":"Kelas III","Status Periksa":"Belum","Alamat Lengkap":"DSN. SUMPUTAN","IdPenjamin":"2222222222","IdDokter":null,"NamaDokter":null,"KdInstalasi":"02","KodeReservasi":null,"Status":null,"KdKelompokPasien":"02"},{"No. Urut":"043","NoPendaftaran":"2010010581","NoCM":"12019257","Nama Pasien":"Tn. SUWANDI","JK":"L","Umur":"58 th 3  bl","TglMasuk":"2020-10-01","Jenis Pasien":"BPJS","Ruangan":"POLI JANTUNG","KdRuangan":"215","KdSubInstalasi":"032","StatusPasien":"Baru","KdKelas":"01","UmurTahun":"58","UmurBulan":"3","UmurHari":"0","Kelas":"Kelas III","Status Periksa":"Belum","Alamat Lengkap":"DSN KEDUNGJALIN","IdPenjamin":"2222222222","IdDokter":null,"NamaDokter":null,"KdInstalasi":"02","KodeReservasi":null,"Status":null,"KdKelompokPasien":"02"},{"No. Urut":"044","NoPendaftaran":"2010010582","NoCM":"12019257","Nama Pasien":"Tn. SUWANDI","JK":"L","Umur":"58 th 3  bl","TglMasuk":"2020-10-01","Jenis Pasien":"BPJS","Ruangan":"POLI JANTUNG","KdRuangan":"215","KdSubInstalasi":"032","StatusPasien":"Lama","KdKelas":"01","UmurTahun":"58","UmurBulan":"3","UmurHari":"0","Kelas":"Kelas III","Status Periksa":"Belum","Alamat Lengkap":"DSN KEDUNGJALIN","IdPenjamin":"2222222222","IdDokter":null,"NamaDokter":null,"KdInstalasi":"02","KodeReservasi":null,"Status":null,"KdKelompokPasien":"02"},{"No. Urut":"045","NoPendaftaran":"2010010583","NoCM":"12019257","Nama Pasien":"Tn. SUWANDI","JK":"L","Umur":"58 th 3  bl","TglMasuk":"2020-10-01","Jenis Pasien":"BPJS","Ruangan":"POLI JANTUNG","KdRuangan":"215","KdSubInstalasi":"032","StatusPasien":"Lama","KdKelas":"01","UmurTahun":"58","UmurBulan":"3","UmurHari":"0","Kelas":"Kelas III","Status Periksa":"Belum","Alamat Lengkap":"DSN KEDUNGJALIN","IdPenjamin":"2222222222","IdDokter":null,"NamaDokter":null,"KdInstalasi":"02","KodeReservasi":null,"Status":null,"KdKelompokPasien":"02"},{"No. Urut":"048","NoPendaftaran":"2010020512","NoCM":"11650076","Nama Pasien":"Tn. LULUK IMAM SUBAGIO","JK":"L","Umur":"54 th 5  bl 1  hr","TglMasuk":"2020-10-02","Jenis Pasien":"BPJS","Ruangan":"POLI JANTUNG","KdRuangan":"215","KdSubInstalasi":"032","StatusPasien":"Lama","KdKelas":"01","UmurTahun":"54","UmurBulan":"5","UmurHari":"1","Kelas":"Kelas III","Status Periksa":"Belum","Alamat Lengkap":"DSN PUNDENSARI","IdPenjamin":"2222222222","IdDokter":null,"NamaDokter":null,"KdInstalasi":"02","KodeReservasi":null,"Status":null,"KdKelompokPasien":"02"},{"No. Urut":"049","NoPendaftaran":"2010050527","NoCM":"12016891","Nama Pasien":"Tn. WAHYUDIANTO","JK":"L","Umur":"54 th 21 hr","TglMasuk":"2020-10-05","Jenis Pasien":"BPJS","Ruangan":"POLI JANTUNG","KdRuangan":"215","KdSubInstalasi":"032","StatusPasien":"Lama","KdKelas":"01","UmurTahun":"54","UmurBulan":"0","UmurHari":"21","Kelas":"Kelas III","Status Periksa":"Belum","Alamat Lengkap":"JL LETJEN SUPRAPTO 58","IdPenjamin":"2222222222","IdDokter":null,"NamaDokter":null,"KdInstalasi":"02","KodeReservasi":null,"Status":null,"KdKelompokPasien":"02"},{"No. Urut":"054","NoPendaftaran":"2010050576","NoCM":"12016891","Nama Pasien":"Tn. WAHYUDIANTO","JK":"L","Umur":"54 th 21 hr","TglMasuk":"2020-10-05","Jenis Pasien":"BPJS","Ruangan":"POLI JANTUNG","KdRuangan":"215","KdSubInstalasi":"032","StatusPasien":"Lama","KdKelas":"01","UmurTahun":"54","UmurBulan":"0","UmurHari":"21","Kelas":"Kelas III","Status Periksa":"Belum","Alamat Lengkap":"JL LETJEN SUPRAPTO 58","IdPenjamin":"2222222222","IdDokter":null,"NamaDokter":null,"KdInstalasi":"02","KodeReservasi":null,"Status":null,"KdKelompokPasien":"02"},{"No. Urut":"064","NoPendaftaran":"2010060628","NoCM":"11913099","Nama Pasien":"Tn. SUYANTO","JK":"L","Umur":"54 th 7  bl 24 hr","TglMasuk":"2020-10-06","Jenis Pasien":"BPJS","Ruangan":"POLI JANTUNG","KdRuangan":"215","KdSubInstalasi":"032","StatusPasien":"Lama","KdKelas":"01","UmurTahun":"54","UmurBulan":"7","UmurHari":"24","Kelas":"Kelas III","Status Periksa":"Belum","Alamat Lengkap":"DUSUN SUMBER","IdPenjamin":"2222222222","IdDokter":null,"NamaDokter":null,"KdInstalasi":"02","KodeReservasi":null,"Status":null,"KdKelompokPasien":"02"}],"first_page_url":"http:\/\/simrs.dev.rsudtulungagung.com\/api\/simrs\/rj\/v1\/antrianpoli\/215?page=1","from":1,"last_page":3,"last_page_url":"http:\/\/simrs.dev.rsudtulungagung.com\/api\/simrs\/rj\/v1\/antrianpoli\/215?page=3","next_page_url":"http:\/\/simrs.dev.rsudtulungagung.com\/api\/simrs\/rj\/v1\/antrianpoli\/215?page=2","path":"http:\/\/simrs.dev.rsudtulungagung.com\/api\/simrs\/rj\/v1\/antrianpoli\/215","per_page":20,"prev_page_url":null,"to":20,"total":45}}