{"data":[{"KdRuangan":"202","NamaRuangan":"POLI PARU","KdInstalasi":"02"},{"KdRuangan":"203","NamaRuangan":"POLI DALAM","KdInstalasi":"02"},{"KdRuangan":"204","NamaRuangan":"POLI PSIKIATRI","KdInstalasi":"02"},{"KdRuangan":"205","NamaRuangan":"POLI SYARAF","KdInstalasi":"02"},{"KdRuangan":"206","NamaRuangan":"INSTALASI REHABILITASI MEDIK","KdInstalasi":"06"},{"KdRuangan":"207","NamaRuangan":"POLI ANAK","KdInstalasi":"02"},{"KdRuangan":"208","NamaRuangan":"POLI ANAK TUMBUH KEMBANG","KdInstalasi":"02"},{"KdRuangan":"209","NamaRuangan":"POLI OBGYN","KdInstalasi":"02"},{"KdRuangan":"210","NamaRuangan":"POLI THT","KdInstalasi":"02"},{"KdRuangan":"211","NamaRuangan":"POLI KULIT","KdInstalasi":"02"},{"KdRuangan":"212","NamaRuangan":"POLI MATA","KdInstalasi":"02"},{"KdRuangan":"213","NamaRuangan":"POLI BEDAH","KdInstalasi":"02"},{"KdRuangan":"214","NamaRuangan":"POLI GIGI","KdInstalasi":"02"},{"KdRuangan":"215","NamaRuangan":"POLI JANTUNG","KdInstalasi":"02"},{"KdRuangan":"216","NamaRuangan":"POLI LAKTASI","KdInstalasi":"02"},{"KdRuangan":"217","NamaRuangan":"POLI GIZI","KdInstalasi":"02"},{"KdRuangan":"020","NamaRuangan":"TREADMIL","KdInstalasi":"45"},{"KdRuangan":"021","NamaRuangan":"GYMNASTIC\r\n","KdInstalasi":"06"},{"KdRuangan":"022","NamaRuangan":"ENDOSKOPI","KdInstalasi":"45"},{"KdRuangan":"023","NamaRuangan":"ECHOCARDIOGRAPHY","KdInstalasi":"45"}],"links":{"first":"http:\/\/simrs.dev.rsudtulungagung.com\/api\/simrs\/rj\/v1\/ruanganRJ?page=1","last":"http:\/\/simrs.dev.rsudtulungagung.com\/api\/simrs\/rj\/v1\/ruanganRJ?page=2","prev":null,"next":"http:\/\/simrs.dev.rsudtulungagung.com\/api\/simrs\/rj\/v1\/ruanganRJ?page=2"},"meta":{"current_page":1,"from":1,"last_page":2,"path":"http:\/\/simrs.dev.rsudtulungagung.com\/api\/simrs\/rj\/v1\/ruanganRJ","per_page":20,"to":20,"total":39}}