{"data":[{"KdRuangan":"024","NamaRuangan":"SERUNI\/VCT","KdInstalasi":"45","row_num":"21"},{"KdRuangan":"025","NamaRuangan":" GCU-TKI","KdInstalasi":"45","row_num":"22"},{"KdRuangan":"218","NamaRuangan":"POLI UMUM","KdInstalasi":"02","row_num":"23"},{"KdRuangan":"219","NamaRuangan":"POLI EXECUTIVE","KdInstalasi":"02","row_num":"24"},{"KdRuangan":"027","NamaRuangan":"MCU","KdInstalasi":"44","row_num":"25"},{"KdRuangan":"226","NamaRuangan":"POLI BRONCOSCOPY","KdInstalasi":"45","row_num":"26"},{"KdRuangan":"227","NamaRuangan":"POLI DOTS","KdInstalasi":"02","row_num":"27"},{"KdRuangan":"228","NamaRuangan":"POLI TERPADU","KdInstalasi":"02","row_num":"28"},{"KdRuangan":"601","NamaRuangan":"FISIOTERAPI","KdInstalasi":"06","row_num":"29"},{"KdRuangan":"321","NamaRuangan":"ODC (PEMERIKSAAN SEHARI)","KdInstalasi":"02","row_num":"30"},{"KdRuangan":"602","NamaRuangan":"OKUPASI TERAPI","KdInstalasi":"06","row_num":"31"},{"KdRuangan":"037","NamaRuangan":"CATH LAB","KdInstalasi":"45","row_num":"32"},{"KdRuangan":"230","NamaRuangan":"POLI ESTETIKA","KdInstalasi":"02","row_num":"33"},{"KdRuangan":"231","NamaRuangan":"POLI GERIATRI","KdInstalasi":"02","row_num":"34"},{"KdRuangan":"232","NamaRuangan":"POLI LEBARAN","KdInstalasi":"02","row_num":"35"},{"KdRuangan":"233","NamaRuangan":"THT Diagnostik","KdInstalasi":"02","row_num":"36"},{"KdRuangan":"051","NamaRuangan":"GCU CPMI","KdInstalasi":"44","row_num":"37"},{"KdRuangan":"234","NamaRuangan":"POLI VIRTUAL","KdInstalasi":"02","row_num":"38"},{"KdRuangan":"229","NamaRuangan":"POLI TBRO","KdInstalasi":"02","row_num":"39"}],"links":{"first":"http:\/\/simrs.dev.rsudtulungagung.com\/api\/simrs\/rj\/v1\/ruanganRJ?page=1","last":"http:\/\/simrs.dev.rsudtulungagung.com\/api\/simrs\/rj\/v1\/ruanganRJ?page=2","prev":"http:\/\/simrs.dev.rsudtulungagung.com\/api\/simrs\/rj\/v1\/ruanganRJ?page=1","next":null},"meta":{"current_page":2,"from":21,"last_page":2,"path":"http:\/\/simrs.dev.rsudtulungagung.com\/api\/simrs\/rj\/v1\/ruanganRJ","per_page":20,"to":39,"total":39}}